%YAML 1.1
%TAG !u! tag:unity3d.com,2011:
--- !u!114 &11400000
MonoBehaviour:
  m_ObjectHideFlags: 0
  m_CorrespondingSourceObject: {fileID: 0}
  m_PrefabInstance: {fileID: 0}
  m_PrefabAsset: {fileID: 0}
  m_GameObject: {fileID: 0}
  m_Enabled: 1
  m_EditorHideFlags: 0
  m_Script: {fileID: 11500000, guid: ce7858dcf979465184590c0b5f35c9ab, type: 3}
  m_Name: NoWeapon
  m_EditorClassIdentifier: 
  id: 0
  title: Empty Hands
  moveSpeedMult: 1
  rotationSpeedMult: 1
  equipShowDelay: 0
  equipTimeTotal: 0
  unEquipHideDelay: 0
  unEquipTimeTotal: 0
  equipUnEquipSpeed: 1
  reloadTime: 0
  meleeAttacks:
  - animationId: 0
    type: 0
    stationary: 0
    length: 0.6
    applyDamageDelay: 0.3
    movementCurve:
      serializedVersion: 2
      m_Curve:
      - serializedVersion: 3
        time: 0
        value: 0
        inSlope: 0
        outSlope: 0
        tangentMode: 0
        weightedMode: 0
        inWeight: 0
        outWeight: 0
      - serializedVersion: 3
        time: 0.4
        value: 0.5
        inSlope: 3.7225854
        outSlope: 3.7225854
        tangentMode: 0
        weightedMode: 0
        inWeight: 0.33333334
        outWeight: 0.13274482
      - serializedVersion: 3
        time: 0.7
        value: 2.9852173
        inSlope: 0.15572758
        outSlope: 0.15572758
        tangentMode: 0
        weightedMode: 0
        inWeight: 0.14874472
        outWeight: 0.29690883
      - serializedVersion: 3
        time: 0.8218506
        value: 2.5241241
        inSlope: -0.045013633
        outSlope: -0.045013633
        tangentMode: 0
        weightedMode: 0
        inWeight: 0.10271335
        outWeight: 0.1935915
      - serializedVersion: 3
        time: 1
        value: 3.0962098
        inSlope: -0.000049085844
        outSlope: -0.000049085844
        tangentMode: 0
        weightedMode: 0
        inWeight: 0.092737
        outWeight: 0
      m_PreInfinity: 2
      m_PostInfinity: 2
      m_RotationOrder: 4
    raycastOffset: {x: 0.8, y: 0.5, z: 0.3}
    rbForce: 150
    damage:
      DamageType: {fileID: 11400000, guid: 898fbc115c7288345b7ef24983b21353, type: 2}
      Amount: 5
  - animationId: 1
    type: 1
    stationary: 0
    length: 1
    applyDamageDelay: 0.5
    movementCurve:
      serializedVersion: 2
      m_Curve:
      - serializedVersion: 3
        time: 0
        value: 0
        inSlope: 5.543266
        outSlope: 5.543266
        tangentMode: 0
        weightedMode: 0
        inWeight: 0
        outWeight: 0.24456461
      - serializedVersion: 3
        time: 0.3
        value: 1.5
        inSlope: -6.23494
        outSlope: -6.23494
        tangentMode: 0
        weightedMode: 0
        inWeight: 0.10271335
        outWeight: 0.4811075
      - serializedVersion: 3
        time: 0.45
        value: 0.16
        inSlope: -0.10110836
        outSlope: -0.10110836
        tangentMode: 0
        weightedMode: 0
        inWeight: 0.14874472
        outWeight: 0.33333334
      - serializedVersion: 3
        time: 0.7
        value: 0.16
        inSlope: 0.18854105
        outSlope: 0.18854105
        tangentMode: 0
        weightedMode: 0
        inWeight: 0.33333334
        outWeight: 0.18570635
      - serializedVersion: 3
        time: 1
        value: 1.5
        inSlope: -0.000049085844
        outSlope: -0.000049085844
        tangentMode: 0
        weightedMode: 0
        inWeight: 0.092737
        outWeight: 0
      m_PreInfinity: 2
      m_PostInfinity: 2
      m_RotationOrder: 4
    raycastOffset: {x: 0.85, y: 0.5, z: 0.5}
    rbForce: 300
    damage:
      DamageType: {fileID: 11400000, guid: 898fbc115c7288345b7ef24983b21353, type: 2}
      Amount: 10
