%YAML 1.1
%TAG !u! tag:unity3d.com,2011:
--- !u!54 &5481482263078092733
Rigidbody:
  m_ObjectHideFlags: 0
  m_CorrespondingSourceObject: {fileID: 0}
  m_PrefabInstance: {fileID: 0}
  m_PrefabAsset: {fileID: 0}
  m_GameObject: {fileID: 156090012601861495}
  serializedVersion: 2
  m_Mass: 1
  m_Drag: 0
  m_AngularDrag: 0.05
  m_UseGravity: 1
  m_IsKinematic: 0
  m_Interpolate: 0
  m_Constraints: 0
  m_CollisionDetection: 0
--- !u!136 &4347559019152422668
CapsuleCollider:
  m_ObjectHideFlags: 0
  m_CorrespondingSourceObject: {fileID: 0}
  m_PrefabInstance: {fileID: 0}
  m_PrefabAsset: {fileID: 0}
  m_GameObject: {fileID: 156090012601861495}
  m_Material: {fileID: 0}
  m_IsTrigger: 0
  m_Enabled: 1
  m_Radius: 0.03
  m_Height: 0.14
  m_Direction: 1
  m_Center: {x: 0, y: 0.04, z: 0}
--- !u!114 &1610437450
MonoBehaviour:
  m_ObjectHideFlags: 0
  m_CorrespondingSourceObject: {fileID: 0}
  m_PrefabInstance: {fileID: 0}
  m_PrefabAsset: {fileID: 0}
  m_GameObject: {fileID: 156090012601861495}
  m_Enabled: 1
  m_EditorHideFlags: 0
  m_Script: {fileID: 11500000, guid: bf2428a42a3545a992af23ffd9856753, type: 3}
  m_Name: 
  m_EditorClassIdentifier: 
  explosionPrefab: {fileID: 132222, guid: ce9a6b1b3e673b54e8ad5746ee0af87d, type: 3}
  triggerTime: 3
--- !u!1001 &157248215468161799
PrefabInstance:
  m_ObjectHideFlags: 0
  serializedVersion: 2
  m_Modification:
    m_TransformParent: {fileID: 0}
    m_Modifications:
    - target: {fileID: 1164800005897840, guid: 6cd84cff5cb5dff4fbd579e83d85e3f1, type: 3}
      propertyPath: m_Name
      value: Grenade_0
      objectReference: {fileID: 0}
    - target: {fileID: 1164800005897840, guid: 6cd84cff5cb5dff4fbd579e83d85e3f1, type: 3}
      propertyPath: m_Layer
      value: 29
      objectReference: {fileID: 0}
    - target: {fileID: 1164800005897840, guid: 6cd84cff5cb5dff4fbd579e83d85e3f1, type: 3}
      propertyPath: m_TagString
      value: Throwable
      objectReference: {fileID: 0}
    - target: {fileID: 4554933644436906, guid: 6cd84cff5cb5dff4fbd579e83d85e3f1, type: 3}
      propertyPath: m_RootOrder
      value: 0
      objectReference: {fileID: 0}
    - target: {fileID: 4554933644436906, guid: 6cd84cff5cb5dff4fbd579e83d85e3f1, type: 3}
      propertyPath: m_LocalPosition.x
      value: 0
      objectReference: {fileID: 0}
    - target: {fileID: 4554933644436906, guid: 6cd84cff5cb5dff4fbd579e83d85e3f1, type: 3}
      propertyPath: m_LocalPosition.y
      value: 0
      objectReference: {fileID: 0}
    - target: {fileID: 4554933644436906, guid: 6cd84cff5cb5dff4fbd579e83d85e3f1, type: 3}
      propertyPath: m_LocalPosition.z
      value: 0
      objectReference: {fileID: 0}
    - target: {fileID: 4554933644436906, guid: 6cd84cff5cb5dff4fbd579e83d85e3f1, type: 3}
      propertyPath: m_LocalRotation.w
      value: 1
      objectReference: {fileID: 0}
    - target: {fileID: 4554933644436906, guid: 6cd84cff5cb5dff4fbd579e83d85e3f1, type: 3}
      propertyPath: m_LocalRotation.x
      value: 0
      objectReference: {fileID: 0}
    - target: {fileID: 4554933644436906, guid: 6cd84cff5cb5dff4fbd579e83d85e3f1, type: 3}
      propertyPath: m_LocalRotation.y
      value: 0
      objectReference: {fileID: 0}
    - target: {fileID: 4554933644436906, guid: 6cd84cff5cb5dff4fbd579e83d85e3f1, type: 3}
      propertyPath: m_LocalRotation.z
      value: 0
      objectReference: {fileID: 0}
    - target: {fileID: 4554933644436906, guid: 6cd84cff5cb5dff4fbd579e83d85e3f1, type: 3}
      propertyPath: m_LocalEulerAnglesHint.x
      value: 0
      objectReference: {fileID: 0}
    - target: {fileID: 4554933644436906, guid: 6cd84cff5cb5dff4fbd579e83d85e3f1, type: 3}
      propertyPath: m_LocalEulerAnglesHint.y
      value: 0
      objectReference: {fileID: 0}
    - target: {fileID: 4554933644436906, guid: 6cd84cff5cb5dff4fbd579e83d85e3f1, type: 3}
      propertyPath: m_LocalEulerAnglesHint.z
      value: 0
      objectReference: {fileID: 0}
    m_RemovedComponents: []
  m_SourcePrefab: {fileID: 100100000, guid: 6cd84cff5cb5dff4fbd579e83d85e3f1, type: 3}
--- !u!1 &156090012601861495 stripped
GameObject:
  m_CorrespondingSourceObject: {fileID: 1164800005897840, guid: 6cd84cff5cb5dff4fbd579e83d85e3f1, type: 3}
  m_PrefabInstance: {fileID: 157248215468161799}
  m_PrefabAsset: {fileID: 0}
