%YAML 1.1
%TAG !u! tag:unity3d.com,2011:
--- !u!114 &11400000
MonoBehaviour:
  m_ObjectHideFlags: 0
  m_CorrespondingSourceObject: {fileID: 0}
  m_PrefabInstance: {fileID: 0}
  m_PrefabAsset: {fileID: 0}
  m_GameObject: {fileID: 0}
  m_Enabled: 1
  m_EditorHideFlags: 0
  m_Script: {fileID: 11500000, guid: 97832e4fde824fe08096430287115a37, type: 3}
  m_Name: Space
  m_EditorClassIdentifier: 
  envFx:
  - tag: Concrete
    material: {fileID: 2100000, guid: f0bd7f09f0b5fbb429d7fe265465b33e, type: 2}
    impactFx: {fileID: 180772, guid: 697d9a1e52bb99d468a5d727e5a4b435, type: 3}
    concreteWeight: 0
    gravelWeight: 0
    metalWeight: 1
    woodWeight: 0
    brickWeight: 0
    glassWeight: 0
    grassWeight: 0
    waterWeight: 0
    rockWeight: 0
