%YAML 1.1
%TAG !u! tag:unity3d.com,2011:
--- !u!114 &11400000
MonoBehaviour:
  m_ObjectHideFlags: 0
  m_CorrespondingSourceObject: {fileID: 0}
  m_PrefabInstance: {fileID: 0}
  m_PrefabAsset: {fileID: 0}
  m_GameObject: {fileID: 0}
  m_Enabled: 1
  m_EditorHideFlags: 0
  m_Script: {fileID: 11500000, guid: 78553169ffb4497490704b02ca10e86c, type: 3}
  m_Name: 0_SmallBox
  m_EditorClassIdentifier: 
  id: boxSmall
  title: Small Box
  icon: {fileID: 0}
  size:
    x: 4
    y: 4
  prefab: {fileID: 691506013327292163, guid: 3e2c6c69cf175214cbd0eab45c516c32, type: 3}
